…
To address point number 1, the following bit of code is employed:
~~~~
tidycombinedData <- combinedData %>% 
                    gather(Feature_Measure_Axis, count, -(c(Subjects, Activity_Labels))) %>%
                    group_by(Subjects, Activity_Labels, Feature_Measure_Axis) %>%
                    summarise(Mean = mean(count))
~~~~                    

where the last line is used to calculated the mean of the variable/subject/activity grouping. At this point, the dataset looks like:
~~~~
> tidycombinedData
Source: local data frame [11,880 x 4]
Groups: Subjects, Activity_Labels [?]

   Subjects Activity_Labels  Feature_Measure_Axis       Mean
      <int>           <chr>                 <chr>      <dbl>
1         1          LAYING fBodyAccJerk_mean()_X -0.9570739
2         1          LAYING fBodyAccJerk_mean()_Y -0.9224626
3         1          LAYING fBodyAccJerk_mean()_Z -0.9480609
4         1          LAYING  fBodyAccJerk_std()_X -0.9641607
5         1          LAYING  fBodyAccJerk_std()_Y -0.9322179
6         1          LAYING  fBodyAccJerk_std()_Z -0.9605870
7         1          LAYING    fBodyAccMag_mean() -0.8617676
8         1          LAYING     fBodyAccMag_std() -0.7983009
9         1          LAYING     fBodyAcc_mean()_X -0.9390991
10        1          LAYING     fBodyAcc_mean()_Y -0.8670652
# ... with 11,870 more rows
~~~~

The second point is addressed through
~~~~
tidycombinedData <- separate(tidycombinedData, Feature_Measure_Axis, c("Feature", "Measure", "Axis"))
~~~~

Of course, this line could be included in the "code pipe" above, but is seperated to make it clear as to what is being done in terms of the points addressed.

As a result, the following (skinny) tidy data is produced
~~~~
> tidycombinedData
Source: local data frame [11,880 x 6]
Groups: Subjects, Activity_Labels [180]

   Subjects Activity_Labels      Feature Measure  Axis       Mean
*     <int>           <chr>        <chr>   <chr> <chr>      <dbl>
1         1          LAYING fBodyAccJerk    mean     X -0.9570739
2         1          LAYING fBodyAccJerk    mean     Y -0.9224626
3         1          LAYING fBodyAccJerk    mean     Z -0.9480609
4         1          LAYING fBodyAccJerk     std     X -0.9641607
5         1          LAYING fBodyAccJerk     std     Y -0.9322179
6         1          LAYING fBodyAccJerk     std     Z -0.9605870
7         1          LAYING  fBodyAccMag    mean       -0.8617676
8         1          LAYING  fBodyAccMag     std       -0.7983009
9         1          LAYING     fBodyAcc    mean     X -0.9390991
10        1          LAYING     fBodyAcc    mean     Y -0.8670652
# ... with 11,870 more rows
…
